…
```
## # A tibble: 1 × 1
##   `n_distinct(species)`
##                   <int>
## 1                    40
```


```r
deserts %>% 
  count(genus)
```

```
## # A tibble: 26 × 2
##    genus                n
##    <chr>            <int>
##  1 Ammodramus           2
##  2 Ammospermophilus   437
##  3 Amphispiza         303
##  4 Baiomys             46
##  5 Calamospiza         13
##  6 Callipepla          16
##  7 Campylorhynchus     50
##  8 Chaetodipus       6029
##  9 Cnemidophorus        2
## 10 Crotalus             2
## # … with 16 more rows
```


```r
deserts %>% 
  count(species) %>% 
  arrange(n)
```

```
## # A tibble: 40 × 2
##    species          n
##    <chr>        <int>
##  1 clarki           1
##  2 scutalatus       1
##  3 tereticaudus     1
##  4 tigris           1
##  5 uniparens        1
##  6 viridis          1
##  7 leucophrys       2
##  8 savannarum       2
##  9 fuscus           5
## 10 undulatus        5
## # … with 30 more rows
```
…
9. Which two species have, on average, the highest weight? Once you have identified them, make a new column that is a ratio of `weight` to `hindfoot_length`. Make a plot that shows the range of this new ratio and fill by sex.


```r
deserts %>% 
  filter(weight != "NA") %>% 
  group_by(species) %>% 
  summarize(average_weight = mean(weight)) %>% 
  arrange(desc(average_weight))
```

```
## # A tibble: 22 × 2
##    species      average_weight
##    <chr>                 <dbl>
##  1 albigula              159. 
##  2 spectabilis           120. 
##  3 spilosoma              93.5
##  4 hispidus               65.6
##  5 fulviventer            58.9
##  6 ochrognathus           55.4
##  7 ordii                  48.9
##  8 merriami               43.2
##  9 baileyi                31.7
## 10 leucogaster            31.6
## # … with 12 more rows
```


```r
ratio <- deserts %>% 
  filter(species == "albigula" | species == "spectabilis") %>% 
  mutate(ratio_of_weight_to_hindfoot = weight/hindfoot_length)
ratio
```

```
## # A tibble: 3,756 × 14
##    record…¹ month   day  year plot_id speci…² sex   hindf…³ weight genus species
##       <dbl> <dbl> <dbl> <dbl>   <dbl> <chr>   <chr>   <dbl>  <dbl> <chr> <chr>  
##  1        1     7    16  1977       2 NL      M          32     NA Neot… albigu…
##  2        2     7    16  1977       3 NL      M          33     NA Neot… albigu…
##  3       11     7    16  1977       5 DS      F          53     NA Dipo… specta…
##  4       17     7    16  1977       3 DS      F          48     NA Dipo… specta…
##  5       20     7    17  1977      11 DS      F          48     NA Dipo… specta…
##  6       22     7    17  1977      15 NL      F          31     NA Neot… albigu…
##  7       30     7    17  1977      10 DS      F          52     NA Dipo… specta…
##  8       38     7    17  1977      17 NL      M          33     NA Neot… albigu…
##  9       42     7    18  1977      18 DS      F          46     NA Dipo… specta…
## 10       58     7    18  1977      12 DS      M          45     NA Dipo… specta…
## # … with 3,746 more rows, 3 more variables: taxa <chr>, plot_type <chr>,
## #   ratio_of_weight_to_hindfoot <dbl>, and abbreviated variable names
## #   ¹​record_id, ²​species_id, ³​hindfoot_length
```
…
