…
2. Which cities in California have the highest number of colleges?

```r
colleges %>% count(city)
```

```
## # A tibble: 161 × 2
##    city            n
##    <chr>       <int>
##  1 Alameda         3
##  2 Anaheim         4
##  3 Angwin          1
##  4 Aptos           1
##  5 Arcata          1
##  6 Atherton        1
##  7 Azusa           1
##  8 Bakersfield     3
##  9 Barstow         1
## 10 Belmont         1
## # … with 151 more rows
```
…
4. The column `COSTT4_A` is the annual cost of each institution. Which city has the highest average cost? Where is it located?

```r
colleges %>%
  group_by(city) %>% 
  summarize(mean_cost = mean(costt4_a,na.rm=T)) %>% 
  arrange(desc(mean_cost))
```

```
## # A tibble: 161 × 2
##    city                mean_cost
##    <chr>                   <dbl>
##  1 Claremont               66498
##  2 Malibu                  66152
##  3 Valencia                64686
##  4 Orange                  64501
##  5 Redlands                61542
##  6 Moraga                  61095
##  7 Atherton                56035
##  8 Thousand Oaks           54373
##  9 Rancho Palos Verdes     50758
## 10 La Verne                50603
## # … with 151 more rows
```
…
