…
```r
gapminder %>% 
  group_by(continent, year) %>% 
  summarize(min_lifeExp = min(lifeExp),
            max_lifeExp = max(lifeExp),
            mean_lifeExp = mean(lifeExp))
```

```
## `summarise()` has grouped output by 'continent'. You can override using the
## `.groups` argument.
```

```
## # A tibble: 60 × 5
## # Groups:   continent [5]
##    continent  year min_lifeExp max_lifeExp mean_lifeExp
##    <fct>     <int>       <dbl>       <dbl>        <dbl>
##  1 Africa     1952        30          52.7         39.1
##  2 Africa     1957        31.6        58.1         41.3
##  3 Africa     1962        32.8        60.2         43.3
##  4 Africa     1967        34.1        61.6         45.3
##  5 Africa     1972        35.4        64.3         47.5
##  6 Africa     1977        36.8        67.1         49.6
##  7 Africa     1982        38.4        69.9         51.6
##  8 Africa     1987        39.9        71.9         53.3
##  9 Africa     1992        23.6        73.6         53.6
## 10 Africa     1997        36.1        74.8         53.6
## # … with 50 more rows
```
…
```r
gapminder %>% 
  select(country, year, pop) %>%
  filter(year == 1952 | year == 2007) %>% 
  pivot_wider(names_from = year,
              names_prefix = "yr_",
              values_from = pop) %>%
  mutate(delta = yr_2007 - yr_1952) %>% 
  arrange(desc(delta))
```

```
## # A tibble: 142 × 4
##    country         yr_1952    yr_2007     delta
##    <fct>             <int>      <int>     <int>
##  1 China         556263527 1318683096 762419569
##  2 India         372000000 1110396331 738396331
##  3 United States 157553000  301139947 143586947
##  4 Indonesia      82052000  223547000 141495000
##  5 Brazil         56602560  190010647 133408087
##  6 Pakistan       41346560  169270617 127924057
##  7 Bangladesh     46886859  150448339 103561480
##  8 Nigeria        33119096  135031164 101912068
##  9 Mexico         30144317  108700891  78556574
## 10 Philippines    22438691   91077287  68638596
## # … with 132 more rows
```
…
